[
    {
        "key": "External Temperature",
        "type": "line",
        "yAxis": "1",
        "values": [
            {
                "y": 6.5,
                "x": "1426842000000"
            },
            {
                "y": 7,
                "x": "1426843800000"
            },
            {
                "y": 7.15,
                "x": "1426845600000"
            },
            {
                "y": 7.09,
                "x": "1426847400000"
            },
            {
                "y": 7.11,
                "x": "1426849200000"
            },
            {
                "y": 6.55,
                "x": "1426851000000"
            },
            {
                "y": 6.55,
                "x": "1426852800000"
            },
            {
                "y": 7.1,
                "x": "1426854600000"
            },
            {
                "y": 6.55,
                "x": "1426856400000"
            },
            {
                "y": 7,
                "x": "1426858200000"
            },
            {
                "y": 7,
                "x": "1426860000000"
            },
            {
                "y": 7,
                "x": "1426861800000"
            },
            {
                "y": 7,
                "x": "1426863600000"
            },
            {
                "y": 7,
                "x": "1426867200000"
            },
            {
                "y": 7.55,
                "x": "1426869000000"
            },
            {
                "y": 7.55,
                "x": "1426870800000"
            },
            {
                "y": 8,
                "x": "1426872600000"
            },
            {
                "y": 8,
                "x": "1426874400000"
            },
            {
                "y": 8,
                "x": "1426876200000"
            },
            {
                "y": 8,
                "x": "1426878000000"
            },
            {
                "y": 8,
                "x": "1426879800000"
            },
            {
                "y": 8,
                "x": "1426881600000"
            },
            {
                "y": 8,
                "x": "1426883400000"
            },
            {
                "y": 9.84,
                "x": "1426884300000"
            },
            {
                "y": 8,
                "x": "1426885200000"
            },
            {
                "y": 8,
                "x": "1426887000000"
            },
            {
                "y": 8,
                "x": "1426888800000"
            },
            {
                "y": 8,
                "x": "1426890600000"
            },
            {
                "y": 8,
                "x": "1426892400000"
            },
            {
                "y": 8,
                "x": "1426894200000"
            },
            {
                "y": 8.45,
                "x": "1426896000000"
            },
            {
                "y": 8,
                "x": "1426897800000"
            },
            {
                "y": 8,
                "x": "1426899600000"
            },
            {
                "y": 8,
                "x": "1426901400000"
            },
            {
                "y": 8,
                "x": "1426903200000"
            },
            {
                "y": 8,
                "x": "1426905000000"
            },
            {
                "y": 7.45,
                "x": "1426906800000"
            },
            {
                "y": 7,
                "x": "1426908600000"
            },
            {
                "y": 7,
                "x": "1426910400000"
            },
            {
                "y": 7,
                "x": "1426912200000"
            },
            {
                "y": 6.45,
                "x": "1426914000000"
            },
            {
                "y": 6.45,
                "x": "1426915800000"
            },
            {
                "y": 5.9,
                "x": "1426917600000"
            },
            {
                "y": 5.9,
                "x": "1426919400000"
            },
            {
                "y": 5.91,
                "x": "1426923000000"
            },
            {
                "y": 5.44,
                "x": "1426924800000"
            },
            {
                "y": 6,
                "x": "1426926600000"
            },
            {
                "y": 7.46,
                "x": "1426930200000"
            },
            {
                "y": 7.76,
                "x": "1426931100000"
            },
            {
                "y": 7.46,
                "x": "1426932000000"
            },
            {
                "y": 8,
                "x": "1426933800000"
            },
            {
                "y": 8.55,
                "x": "1426935600000"
            },
            {
                "y": 8,
                "x": "1426937400000"
            },
            {
                "y": 8.56,
                "x": "1426938300000"
            },
            {
                "y": 9.1,
                "x": "1426939200000"
            },
            {
                "y": 10.67,
                "x": "1426941000000"
            },
            {
                "y": 11.65,
                "x": "1426942800000"
            },
            {
                "y": 12.09,
                "x": "1426944600000"
            },
            {
                "y": 13.55,
                "x": "1426946400000"
            },
            {
                "y": 13.55,
                "x": "1426948200000"
            },
            {
                "y": 13,
                "x": "1426951800000"
            },
            {
                "y": 12.55,
                "x": "1426953600000"
            },
            {
                "y": 12.26,
                "x": "1426954500000"
            },
            {
                "y": 12,
                "x": "1426955400000"
            },
            {
                "y": 12,
                "x": "1426957200000"
            },
            {
                "y": 11,
                "x": "1426959000000"
            },
            {
                "y": 11,
                "x": "1426960800000"
            },
            {
                "y": 10.45,
                "x": "1426962600000"
            },
            {
                "y": 10,
                "x": "1426964400000"
            },
            {
                "y": 9,
                "x": "1426966200000"
            },
            {
                "y": 8.45,
                "x": "1426968000000"
            },
            {
                "y": 8,
                "x": "1426969800000"
            },
            {
                "y": 7,
                "x": "1426971600000"
            },
            {
                "y": 7,
                "x": "1426973400000"
            },
            {
                "y": 7,
                "x": "1426975200000"
            },
            {
                "y": 6,
                "x": "1426977000000"
            },
            {
                "y": 6,
                "x": "1426978800000"
            },
            {
                "y": 6,
                "x": "1426980600000"
            },
            {
                "y": 6.44,
                "x": "1426982400000"
            },
            {
                "y": 6.45,
                "x": "1426984200000"
            },
            {
                "y": 6.45,
                "x": "1426986000000"
            },
            {
                "y": 7,
                "x": "1426987800000"
            },
            {
                "y": 7,
                "x": "1426989600000"
            },
            {
                "y": 7,
                "x": "1426991400000"
            },
            {
                "y": 7,
                "x": "1426993200000"
            },
            {
                "y": 7,
                "x": "1426995000000"
            },
            {
                "y": 7,
                "x": "1426996800000"
            },
            {
                "y": 6.55,
                "x": "1426998600000"
            },
            {
                "y": 6.55,
                "x": "1427000400000"
            },
            {
                "y": 6.55,
                "x": "1427002200000"
            },
            {
                "y": 6.55,
                "x": "1427004000000"
            },
            {
                "y": 6,
                "x": "1427007600000"
            },
            {
                "y": 6.55,
                "x": "1427009400000"
            },
            {
                "y": 6.45,
                "x": "1427011200000"
            },
            {
                "y": 6.45,
                "x": "1427013000000"
            },
            {
                "y": 7,
                "x": "1427014800000"
            },
            {
                "y": 7.45,
                "x": "1427016600000"
            },
            {
                "y": 8,
                "x": "1427018400000"
            },
            {
                "y": 7.45,
                "x": "1427020200000"
            },
            {
                "y": 8,
                "x": "1427022000000"
            },
            {
                "y": 8.45,
                "x": "1427023800000"
            },
            {
                "y": 9,
                "x": "1427025600000"
            },
            {
                "y": 9,
                "x": "1427027400000"
            },
            {
                "y": 9,
                "x": "1427029200000"
            },
            {
                "y": 9,
                "x": "1427031000000"
            },
            {
                "y": 9,
                "x": "1427032800000"
            },
            {
                "y": 8.44,
                "x": "1427034600000"
            },
            {
                "y": 8.45,
                "x": "1427036400000"
            },
            {
                "y": 9,
                "x": "1427038200000"
            },
            {
                "y": 8.45,
                "x": "1427040000000"
            },
            {
                "y": 8.45,
                "x": "1427041800000"
            },
            {
                "y": 8.45,
                "x": "1427043600000"
            },
            {
                "y": 8.45,
                "x": "1427045400000"
            },
            {
                "y": 7.46,
                "x": "1427049000000"
            },
            {
                "y": 6.9,
                "x": "1427050800000"
            },
            {
                "y": 6.33,
                "x": "1427052600000"
            },
            {
                "y": 6.35,
                "x": "1427054400000"
            },
            {
                "y": 6,
                "x": "1427056200000"
            },
            {
                "y": 5.1,
                "x": "1427058000000"
            },
            {
                "y": 5.55,
                "x": "1427059800000"
            },
            {
                "y": 4.55,
                "x": "1427061600000"
            },
            {
                "y": 4.55,
                "x": "1427063400000"
            },
            {
                "y": 4.55,
                "x": "1427064300000"
            },
            {
                "y": 4.56,
                "x": "1427065200000"
            },
            {
                "y": 4,
                "x": "1427067000000"
            },
            {
                "y": 4,
                "x": "1427068800000"
            },
            {
                "y": 4,
                "x": "1427070600000"
            },
            {
                "y": 4.45,
                "x": "1427072400000"
            },
            {
                "y": 3.45,
                "x": "1427076000000"
            },
            {
                "y": 3.45,
                "x": "1427077800000"
            },
            {
                "y": 3.45,
                "x": "1427079600000"
            },
            {
                "y": 3,
                "x": "1427080500000"
            },
            {
                "y": 2.89,
                "x": "1427081400000"
            },
            {
                "y": 1.9,
                "x": "1427083200000"
            },
            {
                "y": 2,
                "x": "1427085000000"
            },
            {
                "y": 1.55,
                "x": "1427086800000"
            },
            {
                "y": 2.45,
                "x": "1427088600000"
            },
            {
                "y": 1.89,
                "x": "1427090400000"
            },
            {
                "y": 1.9,
                "x": "1427092200000"
            },
            {
                "y": 2.1,
                "x": "1427093100000"
            },
            {
                "y": 2.45,
                "x": "1427094000000"
            },
            {
                "y": 3.45,
                "x": "1427095800000"
            },
            {
                "y": 5,
                "x": "1427097600000"
            },
            {
                "y": 6.45,
                "x": "1427099400000"
            },
            {
                "y": 7.45,
                "x": "1427101200000"
            },
            {
                "y": 8,
                "x": "1427103000000"
            },
            {
                "y": 9.45,
                "x": "1427104800000"
            },
            {
                "y": 11,
                "x": "1427106600000"
            },
            {
                "y": 12,
                "x": "1427108400000"
            },
            {
                "y": 12,
                "x": "1427110200000"
            },
            {
                "y": 13,
                "x": "1427112000000"
            },
            {
                "y": 13.26,
                "x": "1427113800000"
            },
            {
                "y": 13.45,
                "x": "1427115600000"
            },
            {
                "y": 14,
                "x": "1427119200000"
            },
            {
                "y": 14,
                "x": "1427120100000"
            },
            {
                "y": 14,
                "x": "1427121000000"
            },
            {
                "y": 13.55,
                "x": "1427122800000"
            },
            {
                "y": 14,
                "x": "1427124600000"
            },
            {
                "y": 13.6,
                "x": "1427125500000"
            },
            {
                "y": 13.43,
                "x": "1427126400000"
            },
            {
                "y": 13.2,
                "x": "1427127300000"
            },
            {
                "y": 13.1,
                "x": "1427129100000"
            },
            {
                "y": 12.7,
                "x": "1427130000000"
            },
            {
                "y": 12.5,
                "x": "1427131800000"
            },
            {
                "y": 11,
                "x": "1427133600000"
            },
            {
                "y": 10.45,
                "x": "1427135400000"
            },
            {
                "y": 10.32,
                "x": "1427137200000"
            },
            {
                "y": 9,
                "x": "1427138100000"
            },
            {
                "y": 8.88,
                "x": "1427139000000"
            },
            {
                "y": 8.65,
                "x": "1427139900000"
            },
            {
                "y": 8.44,
                "x": "1427140800000"
            },
            {
                "y": 8.45,
                "x": "1427142600000"
            },
            {
                "y": 7.45,
                "x": "1427144400000"
            },
            {
                "y": 7.74,
                "x": "1427146200000"
            },
            {
                "y": 7.74,
                "x": "1427147100000"
            },
            {
                "y": 7.45,
                "x": "1427148000000"
            },
            {
                "y": 6.45,
                "x": "1427149800000"
            },
            {
                "y": 6.45,
                "x": "1427151600000"
            },
            {
                "y": 6.44,
                "x": "1427155200000"
            },
            {
                "y": 6.45,
                "x": "1427157000000"
            },
            {
                "y": 6.45,
                "x": "1427160600000"
            },
            {
                "y": 6.45,
                "x": "1427162400000"
            },
            {
                "y": 7,
                "x": "1427164200000"
            },
            {
                "y": 6.45,
                "x": "1427167800000"
            },
            {
                "y": 7,
                "x": "1427169600000"
            },
            {
                "y": 6.45,
                "x": "1427171400000"
            },
            {
                "y": 6.45,
                "x": "1427173200000"
            },
            {
                "y": 6,
                "x": "1427175000000"
            },
            {
                "y": 6,
                "x": "1427176800000"
            },
            {
                "y": 6,
                "x": "1427178600000"
            },
            {
                "y": 6,
                "x": "1427180400000"
            },
            {
                "y": 6,
                "x": "1427182200000"
            },
            {
                "y": 6,
                "x": "1427184000000"
            },
            {
                "y": 6,
                "x": "1427185800000"
            },
            {
                "y": 6.54,
                "x": "1427189400000"
            },
            {
                "y": 6.55,
                "x": "1427191200000"
            },
            {
                "y": 7.55,
                "x": "1427194800000"
            },
            {
                "y": 8.1,
                "x": "1427196600000"
            },
            {
                "y": 8.55,
                "x": "1427198400000"
            },
            {
                "y": 8,
                "x": "1427200200000"
            },
            {
                "y": 9.55,
                "x": "1427202000000"
            },
            {
                "y": 10,
                "x": "1427203800000"
            },
            {
                "y": 10,
                "x": "1427205600000"
            },
            {
                "y": 9.51,
                "x": "1427207400000"
            },
            {
                "y": 8.35,
                "x": "1427209200000"
            },
            {
                "y": 7.65,
                "x": "1427212800000"
            },
            {
                "y": 7.65,
                "x": "1427214600000"
            },
            {
                "y": 8.1,
                "x": "1427216400000"
            },
            {
                "y": 7.68,
                "x": "1427218200000"
            },
            {
                "y": 6.55,
                "x": "1427220000000"
            },
            {
                "y": 6,
                "x": "1427221800000"
            },
            {
                "y": 6,
                "x": "1427223600000"
            },
            {
                "y": 6.44,
                "x": "1427225400000"
            },
            {
                "y": 6.55,
                "x": "1427227200000"
            },
            {
                "y": 6.55,
                "x": "1427229000000"
            },
            {
                "y": 5.55,
                "x": "1427230800000"
            }
        ]
    },
    {
        "key": "Internal Temperature",
        "type": "line",
        "yAxis": "1",
        "values": [
            {
                "y": 22.042150704076,
                "x": "1426847163000"
            },
            {
                "y": 21.387570736636,
                "x": "1426848065000"
            },
            {
                "y": 20.3406153116271,
                "x": "1426848967000"
            },
            {
                "y": 17.3003605075061,
                "x": "1426849867000"
            },
            {
                "y": 20.0546894192008,
                "x": "1426850768000"
            },
            {
                "y": 19.9873177874663,
                "x": "1426851669000"
            },
            {
                "y": 23.9537932206113,
                "x": "1426852570000"
            },
            {
                "y": 21.5139721989417,
                "x": "1426853470000"
            },
            {
                "y": 21.1925598515926,
                "x": "1426854371000"
            },
            {
                "y": 22.629064047013,
                "x": "1426855272000"
            },
            {
                "y": 19.5557947358397,
                "x": "1426856173000"
            },
            {
                "y": 18.0335849369774,
                "x": "1426857074000"
            },
            {
                "y": 15.4301100547423,
                "x": "1426857974000"
            },
            {
                "y": 22.7011118383656,
                "x": "1426858875000"
            },
            {
                "y": 21.1595615106918,
                "x": "1426859775000"
            },
            {
                "y": 17.5109710551668,
                "x": "1426860676000"
            },
            {
                "y": 19.5274851446276,
                "x": "1426861577000"
            },
            {
                "y": 24.3069208139693,
                "x": "1426862483000"
            },
            {
                "y": 16.879757118953,
                "x": "1426863383000"
            },
            {
                "y": 19.5793276618468,
                "x": "1426864284000"
            },
            {
                "y": 21.6508825430426,
                "x": "1426865189000"
            },
            {
                "y": 16.0992201391742,
                "x": "1426866089000"
            },
            {
                "y": 21.7535692901995,
                "x": "1426866990000"
            },
            {
                "y": 23.7616187505844,
                "x": "1426867890000"
            },
            {
                "y": 17.7913182921545,
                "x": "1426868791000"
            },
            {
                "y": 22.7771656444092,
                "x": "1426869691000"
            },
            {
                "y": 18.8680280449838,
                "x": "1426870591000"
            },
            {
                "y": 15.2555570605122,
                "x": "1426871492000"
            },
            {
                "y": 18.2332645555022,
                "x": "1426872392000"
            },
            {
                "y": 19.8312496077159,
                "x": "1426873293000"
            },
            {
                "y": 21.0408537477678,
                "x": "1426874193000"
            },
            {
                "y": 17.4961105718392,
                "x": "1426875094000"
            },
            {
                "y": 17.1114374786388,
                "x": "1426875997000"
            },
            {
                "y": 17.2704162169131,
                "x": "1426876897000"
            },
            {
                "y": 15.1930679930576,
                "x": "1426877802000"
            },
            {
                "y": 20.2613124195471,
                "x": "1426878704000"
            },
            {
                "y": 16.4905654132477,
                "x": "1426879604000"
            },
            {
                "y": 15.6576238767255,
                "x": "1426880505000"
            },
            {
                "y": 17.2314519366089,
                "x": "1426881405000"
            },
            {
                "y": 23.8917532147165,
                "x": "1426882306000"
            },
            {
                "y": 22.2482152410265,
                "x": "1426883206000"
            },
            {
                "y": 20.8634573868922,
                "x": "1426884106000"
            },
            {
                "y": 18.5021326978875,
                "x": "1426885007000"
            },
            {
                "y": 24.1154915758596,
                "x": "1426885907000"
            },
            {
                "y": 19.0777161571092,
                "x": "1426886808000"
            },
            {
                "y": 24.7793403824767,
                "x": "1426887709000"
            },
            {
                "y": 15.6034701020806,
                "x": "1426888609000"
            },
            {
                "y": 18.4953547909504,
                "x": "1426889510000"
            },
            {
                "y": 19.6839568530639,
                "x": "1426890410000"
            },
            {
                "y": 15.4971782059283,
                "x": "1426891311000"
            },
            {
                "y": 19.3712036693493,
                "x": "1426892211000"
            },
            {
                "y": 17.5191850205028,
                "x": "1426893113000"
            },
            {
                "y": 15.7929549748155,
                "x": "1426894016000"
            },
            {
                "y": 23.0039310460359,
                "x": "1426894917000"
            },
            {
                "y": 23.6642898222697,
                "x": "1426895817000"
            },
            {
                "y": 21.990685343907,
                "x": "1426896718000"
            },
            {
                "y": 15.9896142016732,
                "x": "1426897619000"
            },
            {
                "y": 21.6771121778843,
                "x": "1426898519000"
            },
            {
                "y": 21.9904154228387,
                "x": "1426899419000"
            },
            {
                "y": 18.130366870344,
                "x": "1426900320000"
            },
            {
                "y": 19.7414989862615,
                "x": "1426901230000"
            },
            {
                "y": 17.9916031993565,
                "x": "1426902131000"
            },
            {
                "y": 21.0833991751738,
                "x": "1426903032000"
            },
            {
                "y": 19.5069287820044,
                "x": "1426903932000"
            },
            {
                "y": 20.2755502060433,
                "x": "1426904833000"
            },
            {
                "y": 18.0966163862225,
                "x": "1426905733000"
            },
            {
                "y": 19.6794897587241,
                "x": "1426906634000"
            },
            {
                "y": 18.7760574418586,
                "x": "1426907535000"
            },
            {
                "y": 24.6153029465279,
                "x": "1426908435000"
            },
            {
                "y": 21.4368816107999,
                "x": "1426909336000"
            },
            {
                "y": 23.5884212437444,
                "x": "1426910236000"
            },
            {
                "y": 19.9357137308155,
                "x": "1426911137000"
            },
            {
                "y": 17.1911641719026,
                "x": "1426912044000"
            },
            {
                "y": 18.5539220993019,
                "x": "1426912945000"
            },
            {
                "y": 19.5582392629604,
                "x": "1426913845000"
            },
            {
                "y": 20.8652698190719,
                "x": "1426914746000"
            },
            {
                "y": 19.3645379182179,
                "x": "1426915646000"
            },
            {
                "y": 20.0573587014473,
                "x": "1426916546000"
            },
            {
                "y": 22.1691660305686,
                "x": "1426917448000"
            },
            {
                "y": 17.403280961336,
                "x": "1426918350000"
            },
            {
                "y": 21.5213686613991,
                "x": "1426919250000"
            },
            {
                "y": 15.799039858445,
                "x": "1426920150000"
            },
            {
                "y": 23.9091416135935,
                "x": "1426921051000"
            },
            {
                "y": 24.0714533135923,
                "x": "1426921951000"
            },
            {
                "y": 15.1808670566671,
                "x": "1426922852000"
            },
            {
                "y": 22.3891081497724,
                "x": "1426923753000"
            },
            {
                "y": 21.6498928933253,
                "x": "1426924653000"
            },
            {
                "y": 23.2310389646525,
                "x": "1426925554000"
            },
            {
                "y": 23.3052352367369,
                "x": "1426926454000"
            },
            {
                "y": 17.6225482714481,
                "x": "1426927355000"
            },
            {
                "y": 22.9520098927808,
                "x": "1426928255000"
            },
            {
                "y": 19.9259247007031,
                "x": "1426929156000"
            },
            {
                "y": 19.0691181847331,
                "x": "1426930056000"
            },
            {
                "y": 22.1695697153925,
                "x": "1426930957000"
            },
            {
                "y": 20.9969269474017,
                "x": "1426931857000"
            },
            {
                "y": 17.5585057795193,
                "x": "1426932758000"
            },
            {
                "y": 16.1709665597444,
                "x": "1426933659000"
            },
            {
                "y": 21.4820407913089,
                "x": "1426934560000"
            },
            {
                "y": 23.8995152665858,
                "x": "1426935460000"
            },
            {
                "y": 19.0346920679172,
                "x": "1426936361000"
            },
            {
                "y": 23.1931405974169,
                "x": "1426937261000"
            },
            {
                "y": 18.7599654931093,
                "x": "1426938162000"
            },
            {
                "y": 17.0705605972434,
                "x": "1426939063000"
            },
            {
                "y": 22.4727201188831,
                "x": "1426939963000"
            },
            {
                "y": 22.4577824649519,
                "x": "1426940864000"
            },
            {
                "y": 21.7258787816953,
                "x": "1426941765000"
            },
            {
                "y": 20.070021074978,
                "x": "1426942665000"
            },
            {
                "y": 22.0867651940182,
                "x": "1426943566000"
            },
            {
                "y": 19.0984135640948,
                "x": "1426944466000"
            },
            {
                "y": 15.4593559000654,
                "x": "1426945366000"
            },
            {
                "y": 15.2192529314038,
                "x": "1426946267000"
            },
            {
                "y": 21.9294150652107,
                "x": "1426947168000"
            },
            {
                "y": 21.4205942441182,
                "x": "1426948068000"
            },
            {
                "y": 18.9293865254916,
                "x": "1426948969000"
            },
            {
                "y": 22.840725510053,
                "x": "1426949873000"
            },
            {
                "y": 23.2701505284628,
                "x": "1426950773000"
            },
            {
                "y": 20.3803742213628,
                "x": "1426951674000"
            },
            {
                "y": 17.6254653563795,
                "x": "1426952574000"
            },
            {
                "y": 19.133416798855,
                "x": "1426953474000"
            },
            {
                "y": 16.5164539935312,
                "x": "1426954376000"
            },
            {
                "y": 19.9100439471785,
                "x": "1426955278000"
            },
            {
                "y": 19.2435295565371,
                "x": "1426956178000"
            },
            {
                "y": 18.7759148695552,
                "x": "1426957079000"
            },
            {
                "y": 20.1283291760416,
                "x": "1426957980000"
            },
            {
                "y": 21.4647617241019,
                "x": "1426958880000"
            },
            {
                "y": 20.9705338335439,
                "x": "1426959781000"
            },
            {
                "y": 16.7185935939589,
                "x": "1426960683000"
            },
            {
                "y": 15.2398313338428,
                "x": "1426961583000"
            },
            {
                "y": 16.3524404859753,
                "x": "1426962484000"
            },
            {
                "y": 23.0460070319276,
                "x": "1426963384000"
            },
            {
                "y": 20.0052613587492,
                "x": "1426964292000"
            },
            {
                "y": 22.3678564885546,
                "x": "1426965193000"
            },
            {
                "y": 16.6541674570792,
                "x": "1426966098000"
            },
            {
                "y": 15.2717574896483,
                "x": "1426966998000"
            },
            {
                "y": 24.9068832583618,
                "x": "1426967901000"
            },
            {
                "y": 16.9413792341512,
                "x": "1426968801000"
            },
            {
                "y": 16.4316877291097,
                "x": "1426969702000"
            },
            {
                "y": 15.1584275313019,
                "x": "1426970603000"
            },
            {
                "y": 16.5710822171554,
                "x": "1426971512000"
            },
            {
                "y": 21.2787592673134,
                "x": "1426972412000"
            },
            {
                "y": 16.1869220231357,
                "x": "1426973313000"
            },
            {
                "y": 19.5161846014479,
                "x": "1426974213000"
            },
            {
                "y": 16.3445266569284,
                "x": "1426975114000"
            },
            {
                "y": 15.7099867291615,
                "x": "1426976014000"
            },
            {
                "y": 15.3910895796896,
                "x": "1426976916000"
            },
            {
                "y": 24.4004303737612,
                "x": "1426977821000"
            },
            {
                "y": 23.3500590026371,
                "x": "1426978721000"
            },
            {
                "y": 15.0671373540566,
                "x": "1426979622000"
            },
            {
                "y": 20.7156108847098,
                "x": "1426980523000"
            },
            {
                "y": 16.4731486427849,
                "x": "1426981424000"
            },
            {
                "y": 19.1378425435269,
                "x": "1426982325000"
            },
            {
                "y": 21.2056980421958,
                "x": "1426983225000"
            },
            {
                "y": 18.5193350485039,
                "x": "1426984126000"
            },
            {
                "y": 20.6088816142468,
                "x": "1426985026000"
            },
            {
                "y": 23.0241137184559,
                "x": "1426985927000"
            },
            {
                "y": 17.8824607796102,
                "x": "1426986827000"
            },
            {
                "y": 22.1347844875908,
                "x": "1426987728000"
            },
            {
                "y": 19.040505620377,
                "x": "1426988629000"
            },
            {
                "y": 22.9703434934058,
                "x": "1426989529000"
            },
            {
                "y": 23.7159041912441,
                "x": "1426990429000"
            },
            {
                "y": 21.5219871729996,
                "x": "1426991330000"
            },
            {
                "y": 21.3259957137408,
                "x": "1426992231000"
            },
            {
                "y": 21.3026110309368,
                "x": "1426993133000"
            },
            {
                "y": 15.6234678676133,
                "x": "1426994033000"
            },
            {
                "y": 24.8358333888496,
                "x": "1426994934000"
            },
            {
                "y": 20.2148964267563,
                "x": "1426995835000"
            },
            {
                "y": 23.5141156504528,
                "x": "1426996735000"
            },
            {
                "y": 18.9974242763668,
                "x": "1426997636000"
            },
            {
                "y": 18.9296711910311,
                "x": "1426998536000"
            },
            {
                "y": 23.4135386597232,
                "x": "1426999437000"
            },
            {
                "y": 21.3381679035645,
                "x": "1427000338000"
            },
            {
                "y": 16.750045955707,
                "x": "1427001238000"
            },
            {
                "y": 24.4993274517319,
                "x": "1427002139000"
            },
            {
                "y": 22.9021963352524,
                "x": "1427003039000"
            },
            {
                "y": 19.1144416848618,
                "x": "1427003940000"
            },
            {
                "y": 18.7313805033398,
                "x": "1427004841000"
            },
            {
                "y": 23.2971286286396,
                "x": "1427005741000"
            },
            {
                "y": 20.0127880085446,
                "x": "1427006642000"
            },
            {
                "y": 22.2894429903879,
                "x": "1427007543000"
            },
            {
                "y": 21.9347159765427,
                "x": "1427008443000"
            },
            {
                "y": 23.0632505472253,
                "x": "1427009345000"
            },
            {
                "y": 17.1350723285223,
                "x": "1427010246000"
            },
            {
                "y": 16.4534097715317,
                "x": "1427011146000"
            },
            {
                "y": 16.3554778642233,
                "x": "1427012047000"
            },
            {
                "y": 16.5223774698747,
                "x": "1427012947000"
            },
            {
                "y": 22.5351545227375,
                "x": "1427013848000"
            },
            {
                "y": 18.8625126540847,
                "x": "1427014749000"
            },
            {
                "y": 16.0447310068638,
                "x": "1427015649000"
            },
            {
                "y": 16.829509173848,
                "x": "1427016550000"
            },
            {
                "y": 18.3035662533385,
                "x": "1427017450000"
            },
            {
                "y": 19.3333678337738,
                "x": "1427018350000"
            },
            {
                "y": 24.1484977528096,
                "x": "1427019256000"
            },
            {
                "y": 22.824735579351,
                "x": "1427020156000"
            },
            {
                "y": 19.1222914723807,
                "x": "1427021056000"
            },
            {
                "y": 21.0920256568429,
                "x": "1427021957000"
            },
            {
                "y": 19.4960323396601,
                "x": "1427022857000"
            },
            {
                "y": 17.8715008626131,
                "x": "1427023758000"
            },
            {
                "y": 17.717416042618,
                "x": "1427024658000"
            },
            {
                "y": 23.3445219747078,
                "x": "1427025559000"
            },
            {
                "y": 19.2752390488659,
                "x": "1427026460000"
            },
            {
                "y": 21.5141911683367,
                "x": "1427027360000"
            },
            {
                "y": 19.096300884781,
                "x": "1427028262000"
            },
            {
                "y": 20.4629647782634,
                "x": "1427029163000"
            },
            {
                "y": 16.348177833155,
                "x": "1427030064000"
            },
            {
                "y": 20.2452498787951,
                "x": "1427030965000"
            },
            {
                "y": 22.2271176734704,
                "x": "1427031865000"
            },
            {
                "y": 22.1613099225676,
                "x": "1427032767000"
            },
            {
                "y": 17.358914236372,
                "x": "1427033667000"
            },
            {
                "y": 21.1850449479265,
                "x": "1427034568000"
            },
            {
                "y": 17.788438211302,
                "x": "1427035469000"
            },
            {
                "y": 22.5188075302754,
                "x": "1427036371000"
            },
            {
                "y": 15.8916325560912,
                "x": "1427037272000"
            },
            {
                "y": 21.4175674249673,
                "x": "1427038173000"
            },
            {
                "y": 23.0558060766634,
                "x": "1427039083000"
            },
            {
                "y": 22.8408291890624,
                "x": "1427039984000"
            },
            {
                "y": 20.4481025910648,
                "x": "1427040885000"
            },
            {
                "y": 20.5234166619727,
                "x": "1427041786000"
            },
            {
                "y": 24.325847007942,
                "x": "1427042686000"
            },
            {
                "y": 21.1090233190813,
                "x": "1427043587000"
            },
            {
                "y": 21.1734075542895,
                "x": "1427044488000"
            },
            {
                "y": 15.0921879252215,
                "x": "1427045388000"
            },
            {
                "y": 24.6440881362014,
                "x": "1427046289000"
            },
            {
                "y": 24.5114940341486,
                "x": "1427047189000"
            },
            {
                "y": 22.2629251452234,
                "x": "1427048090000"
            },
            {
                "y": 19.2691356087877,
                "x": "1427048991000"
            },
            {
                "y": 24.6787951024216,
                "x": "1427049891000"
            },
            {
                "y": 18.9756461389242,
                "x": "1427050792000"
            },
            {
                "y": 21.560839991721,
                "x": "1427051693000"
            },
            {
                "y": 21.6673700193312,
                "x": "1427052593000"
            },
            {
                "y": 20.0658236012329,
                "x": "1427053495000"
            },
            {
                "y": 22.231365382037,
                "x": "1427054396000"
            },
            {
                "y": 21.788161740199,
                "x": "1427055297000"
            },
            {
                "y": 16.7039676914281,
                "x": "1427056197000"
            },
            {
                "y": 21.0615004184171,
                "x": "1427057098000"
            },
            {
                "y": 24.2333763829901,
                "x": "1427057999000"
            },
            {
                "y": 17.3722632827734,
                "x": "1427058924000"
            },
            {
                "y": 16.9152492375985,
                "x": "1427059824000"
            },
            {
                "y": 24.4050792660562,
                "x": "1427060727000"
            },
            {
                "y": 15.4707674681052,
                "x": "1427061627000"
            },
            {
                "y": 15.8878012232007,
                "x": "1427062528000"
            },
            {
                "y": 23.7632253436617,
                "x": "1427063429000"
            },
            {
                "y": 18.9252002541672,
                "x": "1427064331000"
            },
            {
                "y": 24.5065543547405,
                "x": "1427065231000"
            },
            {
                "y": 16.4475214449016,
                "x": "1427066142000"
            },
            {
                "y": 24.8836404695425,
                "x": "1427067042000"
            },
            {
                "y": 24.0447946934299,
                "x": "1427067943000"
            },
            {
                "y": 18.6005215003841,
                "x": "1427068844000"
            },
            {
                "y": 21.5443981224093,
                "x": "1427069744000"
            },
            {
                "y": 21.9058099834273,
                "x": "1427070645000"
            },
            {
                "y": 22.2770016141818,
                "x": "1427071545000"
            },
            {
                "y": 24.2274241697933,
                "x": "1427072445000"
            },
            {
                "y": 21.0517936933431,
                "x": "1427073346000"
            },
            {
                "y": 23.7756206472727,
                "x": "1427074247000"
            },
            {
                "y": 20.3077394885123,
                "x": "1427075149000"
            },
            {
                "y": 16.6146922896779,
                "x": "1427076050000"
            },
            {
                "y": 19.6774725340771,
                "x": "1427076950000"
            },
            {
                "y": 20.4127172400041,
                "x": "1427077852000"
            },
            {
                "y": 16.7953936468225,
                "x": "1427078753000"
            },
            {
                "y": 18.9344838938373,
                "x": "1427079654000"
            },
            {
                "y": 24.353005476668,
                "x": "1427080554000"
            },
            {
                "y": 23.7711105032376,
                "x": "1427081455000"
            },
            {
                "y": 23.8039486124618,
                "x": "1427082355000"
            },
            {
                "y": 20.32010344554,
                "x": "1427083260000"
            },
            {
                "y": 16.3527589531931,
                "x": "1427084162000"
            },
            {
                "y": 18.2500741396507,
                "x": "1427085063000"
            },
            {
                "y": 19.8495829979824,
                "x": "1427085964000"
            },
            {
                "y": 15.3596377431271,
                "x": "1427086864000"
            },
            {
                "y": 15.7152830581448,
                "x": "1427087765000"
            },
            {
                "y": 19.3997491970437,
                "x": "1427088665000"
            },
            {
                "y": 21.8150179653229,
                "x": "1427089566000"
            },
            {
                "y": 20.9010653646005,
                "x": "1427090466000"
            },
            {
                "y": 23.713345000192,
                "x": "1427091369000"
            },
            {
                "y": 24.8246102114071,
                "x": "1427092270000"
            },
            {
                "y": 17.5435870123654,
                "x": "1427093171000"
            },
            {
                "y": 21.8246479531203,
                "x": "1427094071000"
            },
            {
                "y": 18.2791601278117,
                "x": "1427094972000"
            },
            {
                "y": 18.7502865234218,
                "x": "1427095881000"
            },
            {
                "y": 24.1493371584726,
                "x": "1427096782000"
            },
            {
                "y": 20.1665564955699,
                "x": "1427097683000"
            },
            {
                "y": 15.2414758588629,
                "x": "1427098586000"
            },
            {
                "y": 19.5409736569632,
                "x": "1427099486000"
            },
            {
                "y": 16.6638925023896,
                "x": "1427100387000"
            },
            {
                "y": 22.5692821604973,
                "x": "1427101288000"
            },
            {
                "y": 17.3771160892809,
                "x": "1427102189000"
            },
            {
                "y": 15.9285313713221,
                "x": "1427103091000"
            },
            {
                "y": 18.4255162762967,
                "x": "1427103992000"
            },
            {
                "y": 24.9373704142711,
                "x": "1427104892000"
            },
            {
                "y": 19.002517560682,
                "x": "1427105792000"
            },
            {
                "y": 22.6333589618232,
                "x": "1427106694000"
            },
            {
                "y": 21.121275658088,
                "x": "1427107596000"
            },
            {
                "y": 23.0723021678005,
                "x": "1427108496000"
            },
            {
                "y": 20.6105856032493,
                "x": "1427109397000"
            },
            {
                "y": 22.162332325813,
                "x": "1427110298000"
            },
            {
                "y": 16.7044881924018,
                "x": "1427111198000"
            },
            {
                "y": 21.314470020148,
                "x": "1427112098000"
            },
            {
                "y": 24.7514340874473,
                "x": "1427112999000"
            },
            {
                "y": 17.8917939897299,
                "x": "1427113900000"
            },
            {
                "y": 17.2960596965971,
                "x": "1427114800000"
            },
            {
                "y": 24.5715048523831,
                "x": "1427115700000"
            },
            {
                "y": 20.2446340592116,
                "x": "1427116602000"
            },
            {
                "y": 17.4074597187719,
                "x": "1427117502000"
            },
            {
                "y": 20.8256580847274,
                "x": "1427118403000"
            },
            {
                "y": 16.9856925113442,
                "x": "1427119304000"
            },
            {
                "y": 19.2089373000416,
                "x": "1427120204000"
            },
            {
                "y": 23.2434673631593,
                "x": "1427121105000"
            },
            {
                "y": 22.93331884908,
                "x": "1427122005000"
            },
            {
                "y": 24.491069615678,
                "x": "1427122906000"
            },
            {
                "y": 21.8120898905019,
                "x": "1427123807000"
            },
            {
                "y": 17.2927989545777,
                "x": "1427124710000"
            },
            {
                "y": 24.0943477397272,
                "x": "1427125611000"
            },
            {
                "y": 17.1889614177763,
                "x": "1427126512000"
            },
            {
                "y": 16.3074297878118,
                "x": "1427127413000"
            },
            {
                "y": 21.6434892383323,
                "x": "1427128313000"
            },
            {
                "y": 16.3998375993378,
                "x": "1427129218000"
            },
            {
                "y": 24.1127400291597,
                "x": "1427130118000"
            },
            {
                "y": 22.2709744277109,
                "x": "1427131020000"
            },
            {
                "y": 15.5886460591835,
                "x": "1427131920000"
            },
            {
                "y": 23.5410912152369,
                "x": "1427132821000"
            },
            {
                "y": 20.6801648222588,
                "x": "1427133730000"
            },
            {
                "y": 16.9036945861433,
                "x": "1427134631000"
            },
            {
                "y": 15.9901298963452,
                "x": "1427135532000"
            },
            {
                "y": 23.6592116645375,
                "x": "1427136432000"
            },
            {
                "y": 17.9262679119449,
                "x": "1427137332000"
            },
            {
                "y": 21.2220565130936,
                "x": "1427138233000"
            },
            {
                "y": 24.2488575564559,
                "x": "1427139134000"
            },
            {
                "y": 16.9561079901632,
                "x": "1427140035000"
            },
            {
                "y": 21.0943951498318,
                "x": "1427140935000"
            },
            {
                "y": 22.0153500066524,
                "x": "1427141836000"
            },
            {
                "y": 22.5881168844287,
                "x": "1427142736000"
            },
            {
                "y": 21.4689018856255,
                "x": "1427143637000"
            },
            {
                "y": 17.0584797600187,
                "x": "1427144537000"
            },
            {
                "y": 20.7494934143613,
                "x": "1427145438000"
            },
            {
                "y": 24.1733811441779,
                "x": "1427146341000"
            },
            {
                "y": 16.6527871987738,
                "x": "1427147243000"
            },
            {
                "y": 19.3224018330844,
                "x": "1427148143000"
            },
            {
                "y": 23.105456284872,
                "x": "1427149044000"
            },
            {
                "y": 19.0574345208146,
                "x": "1427149944000"
            },
            {
                "y": 15.9697447861789,
                "x": "1427150846000"
            },
            {
                "y": 16.4893958968573,
                "x": "1427151746000"
            },
            {
                "y": 15.1932315774848,
                "x": "1427152647000"
            },
            {
                "y": 16.7235103227689,
                "x": "1427153547000"
            },
            {
                "y": 23.3254644053361,
                "x": "1427154448000"
            },
            {
                "y": 21.506340526353,
                "x": "1427155350000"
            },
            {
                "y": 17.0704651001466,
                "x": "1427156250000"
            },
            {
                "y": 19.2735497225858,
                "x": "1427157151000"
            },
            {
                "y": 22.5859913009543,
                "x": "1427158052000"
            },
            {
                "y": 22.2828633432971,
                "x": "1427158953000"
            },
            {
                "y": 15.9348611914776,
                "x": "1427159856000"
            },
            {
                "y": 19.2918933098098,
                "x": "1427160756000"
            },
            {
                "y": 18.6658487422379,
                "x": "1427161656000"
            },
            {
                "y": 19.6559343907604,
                "x": "1427162557000"
            },
            {
                "y": 22.1803178137801,
                "x": "1427163457000"
            },
            {
                "y": 18.357277261066,
                "x": "1427164358000"
            },
            {
                "y": 20.7688572381948,
                "x": "1427165258000"
            },
            {
                "y": 20.4640951116323,
                "x": "1427166158000"
            },
            {
                "y": 22.249761514454,
                "x": "1427167059000"
            },
            {
                "y": 21.3216165007713,
                "x": "1427167962000"
            },
            {
                "y": 22.5518219447408,
                "x": "1427168862000"
            },
            {
                "y": 16.1765784288938,
                "x": "1427169763000"
            },
            {
                "y": 18.2995950343697,
                "x": "1427170663000"
            },
            {
                "y": 21.6346789411293,
                "x": "1427171563000"
            },
            {
                "y": 16.5437688317403,
                "x": "1427172464000"
            },
            {
                "y": 18.2571020083043,
                "x": "1427173365000"
            },
            {
                "y": 21.1036253607093,
                "x": "1427174265000"
            },
            {
                "y": 18.6667874119966,
                "x": "1427175166000"
            },
            {
                "y": 21.4010355940279,
                "x": "1427176067000"
            },
            {
                "y": 18.799418162818,
                "x": "1427176968000"
            },
            {
                "y": 24.0384323413071,
                "x": "1427177868000"
            },
            {
                "y": 20.5645000057719,
                "x": "1427178769000"
            },
            {
                "y": 15.4116479359593,
                "x": "1427179669000"
            },
            {
                "y": 22.6202984313689,
                "x": "1427180570000"
            },
            {
                "y": 16.7982119273539,
                "x": "1427181471000"
            },
            {
                "y": 21.120466750787,
                "x": "1427182371000"
            },
            {
                "y": 23.021755313128,
                "x": "1427183272000"
            },
            {
                "y": 19.0312360069926,
                "x": "1427184175000"
            },
            {
                "y": 17.3987879916273,
                "x": "1427185075000"
            },
            {
                "y": 20.9698283892289,
                "x": "1427185978000"
            },
            {
                "y": 20.7833943208569,
                "x": "1427186878000"
            },
            {
                "y": 15.2152570501835,
                "x": "1427187779000"
            },
            {
                "y": 17.0083110953248,
                "x": "1427188680000"
            },
            {
                "y": 19.52882540886,
                "x": "1427189582000"
            },
            {
                "y": 23.5386263142458,
                "x": "1427190482000"
            },
            {
                "y": 21.7009731055027,
                "x": "1427191384000"
            },
            {
                "y": 24.5506014847501,
                "x": "1427192284000"
            },
            {
                "y": 16.8246544642162,
                "x": "1427193185000"
            },
            {
                "y": 24.3555622739459,
                "x": "1427194085000"
            },
            {
                "y": 19.1479508031613,
                "x": "1427194986000"
            },
            {
                "y": 16.1293198923686,
                "x": "1427195887000"
            },
            {
                "y": 20.1890993536936,
                "x": "1427196787000"
            },
            {
                "y": 22.0587895229279,
                "x": "1427197688000"
            },
            {
                "y": 24.3276663213546,
                "x": "1427198595000"
            },
            {
                "y": 16.8358472414841,
                "x": "1427199495000"
            },
            {
                "y": 18.3343450137617,
                "x": "1427200396000"
            },
            {
                "y": 17.3158697076861,
                "x": "1427201296000"
            },
            {
                "y": 20.5100053349765,
                "x": "1427202197000"
            },
            {
                "y": 17.7427763989857,
                "x": "1427203098000"
            },
            {
                "y": 21.4708134291753,
                "x": "1427203998000"
            },
            {
                "y": 20.4585880780925,
                "x": "1427204899000"
            },
            {
                "y": 20.6664641961819,
                "x": "1427205799000"
            },
            {
                "y": 23.373261259717,
                "x": "1427206699000"
            },
            {
                "y": 24.1853559849486,
                "x": "1427207600000"
            },
            {
                "y": 24.5631236545098,
                "x": "1427208500000"
            },
            {
                "y": 20.6332574346888,
                "x": "1427209401000"
            },
            {
                "y": 19.2262150298159,
                "x": "1427210301000"
            },
            {
                "y": 24.5309116146567,
                "x": "1427211201000"
            },
            {
                "y": 21.5540054014292,
                "x": "1427212102000"
            },
            {
                "y": 24.3512954017154,
                "x": "1427213003000"
            },
            {
                "y": 16.3409767836734,
                "x": "1427213903000"
            },
            {
                "y": 22.4984158350058,
                "x": "1427214804000"
            },
            {
                "y": 23.0242290254301,
                "x": "1427215705000"
            },
            {
                "y": 16.5109907355172,
                "x": "1427216607000"
            },
            {
                "y": 24.0889487394476,
                "x": "1427217508000"
            },
            {
                "y": 18.748385738303,
                "x": "1427218409000"
            },
            {
                "y": 18.0793429218384,
                "x": "1427219321000"
            },
            {
                "y": 21.2823160628667,
                "x": "1427220224000"
            },
            {
                "y": 24.880164561363,
                "x": "1427221124000"
            },
            {
                "y": 16.7796501294079,
                "x": "1427222025000"
            },
            {
                "y": 15.8332941420543,
                "x": "1427222929000"
            },
            {
                "y": 17.9786414504311,
                "x": "1427223830000"
            },
            {
                "y": 20.9490025343481,
                "x": "1427224730000"
            },
            {
                "y": 17.4848390292764,
                "x": "1427225633000"
            },
            {
                "y": 18.6556360942224,
                "x": "1427226538000"
            }
        ]
    },
    {
        "key": "Human Presences",
        "type": "bar",
        "yAxis": "2",
        "values": [
            {
                "y": 31,
                "x": "1426847163000"
            },
            {
                "y": 60,
                "x": "1426848065000"
            },
            {
                "y": 85,
                "x": "1426848967000"
            },
            {
                "y": 64,
                "x": "1426849867000"
            },
            {
                "y": 73,
                "x": "1426850768000"
            },
            {
                "y": 100,
                "x": "1426851669000"
            },
            {
                "y": 35,
                "x": "1426852570000"
            },
            {
                "y": 78,
                "x": "1426853470000"
            },
            {
                "y": 21,
                "x": "1426854371000"
            },
            {
                "y": 35,
                "x": "1426855272000"
            },
            {
                "y": 6,
                "x": "1426856173000"
            },
            {
                "y": 6,
                "x": "1426857074000"
            },
            {
                "y": 20,
                "x": "1426857974000"
            },
            {
                "y": 56,
                "x": "1426858875000"
            },
            {
                "y": 90,
                "x": "1426859775000"
            },
            {
                "y": 37,
                "x": "1426860676000"
            },
            {
                "y": 61,
                "x": "1426861577000"
            },
            {
                "y": 38,
                "x": "1426862483000"
            },
            {
                "y": 3,
                "x": "1426863383000"
            },
            {
                "y": 23,
                "x": "1426864284000"
            },
            {
                "y": 40,
                "x": "1426865189000"
            },
            {
                "y": 29,
                "x": "1426866089000"
            },
            {
                "y": 84,
                "x": "1426866990000"
            },
            {
                "y": 28,
                "x": "1426867890000"
            },
            {
                "y": 92,
                "x": "1426868791000"
            },
            {
                "y": 1,
                "x": "1426869691000"
            },
            {
                "y": 84,
                "x": "1426870591000"
            },
            {
                "y": 15,
                "x": "1426871492000"
            },
            {
                "y": 72,
                "x": "1426872392000"
            },
            {
                "y": 12,
                "x": "1426873293000"
            },
            {
                "y": 17,
                "x": "1426874193000"
            },
            {
                "y": 72,
                "x": "1426875094000"
            },
            {
                "y": 39,
                "x": "1426875997000"
            },
            {
                "y": 62,
                "x": "1426876897000"
            },
            {
                "y": 53,
                "x": "1426877802000"
            },
            {
                "y": 29,
                "x": "1426878704000"
            },
            {
                "y": 96,
                "x": "1426879604000"
            },
            {
                "y": 59,
                "x": "1426880505000"
            },
            {
                "y": 45,
                "x": "1426881405000"
            },
            {
                "y": 53,
                "x": "1426882306000"
            },
            {
                "y": 61,
                "x": "1426883206000"
            },
            {
                "y": 84,
                "x": "1426884106000"
            },
            {
                "y": 75,
                "x": "1426885007000"
            },
            {
                "y": 16,
                "x": "1426885907000"
            },
            {
                "y": 87,
                "x": "1426886808000"
            },
            {
                "y": 14,
                "x": "1426887709000"
            },
            {
                "y": 36,
                "x": "1426888609000"
            },
            {
                "y": 43,
                "x": "1426889510000"
            },
            {
                "y": 60,
                "x": "1426890410000"
            },
            {
                "y": 55,
                "x": "1426891311000"
            },
            {
                "y": 100,
                "x": "1426892211000"
            },
            {
                "y": 52,
                "x": "1426893113000"
            },
            {
                "y": 80,
                "x": "1426894016000"
            },
            {
                "y": 51,
                "x": "1426894917000"
            },
            {
                "y": 52,
                "x": "1426895817000"
            },
            {
                "y": 86,
                "x": "1426896718000"
            },
            {
                "y": 94,
                "x": "1426897619000"
            },
            {
                "y": 65,
                "x": "1426898519000"
            },
            {
                "y": 78,
                "x": "1426899419000"
            },
            {
                "y": 19,
                "x": "1426900320000"
            },
            {
                "y": 0,
                "x": "1426901230000"
            },
            {
                "y": 24,
                "x": "1426902131000"
            },
            {
                "y": 1,
                "x": "1426903032000"
            },
            {
                "y": 56,
                "x": "1426903932000"
            },
            {
                "y": 45,
                "x": "1426904833000"
            },
            {
                "y": 71,
                "x": "1426905733000"
            }
        ]
    }
]